        column_name        |               table_name               
--------------------------+----------------------------------------
 fecha_key                | agregado_matricula_adicion_cancelacion
 total_adiciones          | agregado_matricula_adicion_cancelacion
 total_cancelaciones      | agregado_matricula_adicion_cancelacion
 total_matriculas         | agregado_matricula_adicion_cancelacion
 franja_horaria_key       | agregado_matricula_adicion_cancelacion
 programa_key             | agregado_matricula_adicion_cancelacion
 asignatura_key           | agregado_matricula_adicion_cancelacion
 asignatura_key           | asignatura
 escuela_key              | asignatura
 tipo                     | asignatura
 nivel                    | asignatura
 creditos                 | asignatura
 nombre                   | asignatura
 codigo                   | asignatura
 asignatura_key           | cancelacion
 grupo                    | cancelacion
 tabulado_key             | cancelacion
 franja_horaria_key       | cancelacion
 demografia_key           | cancelacion
 estudiante_key           | cancelacion
 equipo_key               | cancelacion
 programa_key             | cancelacion
 fecha_key                | cancelacion
 tipo_documento_identidad | demografia
 numero_hermanos          | demografia
 estrato                  | demografia
 comuna                   | demografia
 barrio                   | demografia
 ciudad_residencia        | demografia
 estado_civil             | demografia
 demografia_key           | demografia
 inventario               | equipo
 equipo_key               | equipo
 mac                      | equipo
 ip                       | equipo
 espacio                  | equipo
 edificio                 | equipo
 marca                    | equipo
 modelo                   | equipo
 capacidad_ram            | equipo
 capacidad_disco          | equipo
 procesador               | equipo
 tarjeta_video            | equipo
 sistema_operativo        | equipo
 nombre_director          | escuela
 escuela_key              | escuela
 nombre                   | escuela
 facultad                 | escuela
 sede                     | escuela
 icfes_filosofia          | estudiante
 icfes_quimica            | estudiante
 icfes_geografia          | estudiante
 icfes_historia           | estudiante
 icfes_idioma             | estudiante
 icfes_interdisciplinar   | estudiante
 apellido                 | estudiante
 nombre                   | estudiante
 codigo                   | estudiante
 estudiante_key           | estudiante
 icfes_tipo               | estudiante
 icfes_biologia           | estudiante
 icfes_fisica             | estudiante
 icfes_lenguaje           | estudiante
 icfes_matematicas        | estudiante
 apellido2                | estudiante
 documento_identidad      | estudiante
 telefono                 | estudiante
 direccion_residencia     | estudiante
 genero                   | estudiante
 fecha_nacimiento         | estudiante
 correo_electronico       | estudiante
 colegio                  | estudiante
 año_graduacion           | estudiante
 validar_grado_flag       | estudiante
 categoria                | estudiante
 icfes_snp                | estudiante
 fecha_key                | fecha
 semestre_anio            | fecha
 periodo_academico        | fecha
 numero_semana            | fecha
 numero_dia               | fecha
 numero_mes               | fecha
 numero_anio              | fecha
 nombre_dia               | fecha
 nombre_mes               | fecha
 franja_horaria_key       | franja_horaria
 hora_inicio              | franja_horaria
 hora_fin                 | franja_horaria
 nombre_franja            | franja_horaria
 grupo                    | matricula
 tabulado_key             | matricula
 franja_horaria_key       | matricula
 demografia_key           | matricula
 estudiante_key           | matricula
 equipo_key               | matricula
 programa_key             | matricula
 asignatura_key           | matricula
 fecha_key                | matricula
 programa_key             | programa
 director                 | programa
 anio_inicio_programa     | programa
 jornada                  | programa
 escuela_key              | programa
 cantidad_semestres       | programa
 anio_ultimo_registro     | programa
 acreditacion             | programa
 creditos                 | programa
 nivel                    | programa
 resolucion               | programa
 nombre                   | programa
 snies                    | programa
 codigo                   | programa
(112 filas)

